…
#> 
#>        Parameter  Est.     SE %RSE Back-transformed(95%CI) BSV(CV%) Shrink(SD)%
#> tka              0.454  0.192 42.2       1.57 (1.08, 2.29)     69.6     -0.514 
#> tcl               1.01 0.0850 8.40       2.75 (2.33, 3.25)     27.5       3.02 
#> tv         log V  3.45 0.0451 1.31       31.6 (28.9, 34.5)     13.2       11.2 
#> add.sd           0.700      0    0    0.700 (0.700, 0.700)                     
#>  
#>   Covariance Type ($covMethod): linFim
#>   No correlations in between subject variability (BSV) matrix
#>   Full BSV covariance ($omega) or correlation ($omegaR; diagonals=SDs) 
#>   Distribution stats (mean/skewness/kurtosis/p-value) available in $shrink 
#>   Censoring ($censInformation): No censoring
#> 
#> ── Fit Data (object is a modified tibble): ──
#> # A tibble: 132 × 18
#>   ID     TIME    DV  PRED    RES IPRED    IRES   IWRES eta.ka eta.cl   eta.v
#>   <fct> <dbl> <dbl> <dbl>  <dbl> <dbl>   <dbl>   <dbl>  <dbl>  <dbl>   <dbl>
#> 1 1      0     0.74  0     0.74   0     0.74    1.06    0.103 -0.486 -0.0781
#> 2 1      0.25  2.84  3.21 -0.371  3.81 -0.968  -1.38    0.103 -0.486 -0.0781
#> 3 1      0.57  6.57  5.62  0.946  6.61 -0.0394 -0.0563  0.103 -0.486 -0.0781
#> # ℹ 129 more rows
#> # ℹ 7 more variables: depot <dbl>, central <dbl>, ka <dbl>, cl <dbl>, v <dbl>,
#> #   tad <dbl>, dosenum <dbl>
…
#> 
#>        Parameter  Est.     SE %RSE Back-transformed(95%CI) BSV(CV%) Shrink(SD)%
#> tka              0.454  0.192 42.2       1.57 (1.08, 2.29)     69.6     -0.514 
#> tcl               1.01 0.0850 8.40       2.75 (2.33, 3.25)     27.5       3.02 
#> tv         log V  3.45 0.0451 1.31       31.6 (28.9, 34.5)     13.2       11.2 
#> add.sd           0.700      0    0    0.700 (0.700, 0.700)                     
#>  
#>   Covariance Type ($covMethod): linFim
#>   No correlations in between subject variability (BSV) matrix
#>   Full BSV covariance ($omega) or correlation ($omegaR; diagonals=SDs) 
#>   Distribution stats (mean/skewness/kurtosis/p-value) available in $shrink 
#>   Censoring ($censInformation): No censoring
#> 
#> ── Fit Data (object is a modified tibble): ──
#> # A tibble: 132 × 22
#>   ID     TIME    DV  PRED    RES IPRED    IRES   IWRES eta.ka eta.cl   eta.v
#>   <fct> <dbl> <dbl> <dbl>  <dbl> <dbl>   <dbl>   <dbl>  <dbl>  <dbl>   <dbl>
#> 1 1      0     0.74  0     0.74   0     0.74    1.06    0.103 -0.486 -0.0781
#> 2 1      0.25  2.84  3.21 -0.371  3.81 -0.968  -1.38    0.103 -0.486 -0.0781
#> 3 1      0.57  6.57  5.62  0.946  6.61 -0.0394 -0.0563  0.103 -0.486 -0.0781
#> # ℹ 129 more rows
#> # ℹ 11 more variables: depot <dbl>, central <dbl>, ka <dbl>, cl <dbl>, v <dbl>,
#> #   tad <dbl>, dosenum <dbl>, WRES <dbl>, CPRED <dbl>, CRES <dbl>, CWRES <dbl>
…
