Add CWRES — addCwres • nlmixr2est
…
#> tka               0.46  0.195 42.3       1.58 (1.08, 2.32)     71.0    -0.606% 
#> tcl               1.01 0.0838 8.31       2.74 (2.33, 3.23)     27.0      4.04% 
#> tv         log V  3.45 0.0453 1.31       31.6 (28.9, 34.6)     13.4      9.53% 
#> add.sd           0.695                               0.695                     
#>  
#>   Covariance Type ($covMethod): linFim
#>   No correlations in between subject variability (BSV) matrix
#>   Full BSV covariance ($omega) or correlation ($omegaR; diagonals=SDs) 
#>   Distribution stats (mean/skewness/kurtosis/p-value) available in $shrink 
#>   Information about run found ($runInfo):
#>    • 'one.cmt' has the following user-defined boundaries: tcl which are ignored in 'saem' 
#>   Censoring ($censInformation): No censoring
#> 
#> ── Fit Data (object is a modified tibble): ──
#> # A tibble: 132 × 18
#>   ID     TIME    DV  PRED    RES IPRED   IRES  IWRES eta.ka eta.cl   eta.v depot
#>   <fct> <dbl> <dbl> <dbl>  <dbl> <dbl>  <dbl>  <dbl>  <dbl>  <dbl>   <dbl> <dbl>
#> 1 1      0     0.74  0     0.74   0     0.74   1.06  0.0883 -0.477 -0.0846  320.
#> 2 1      0.25  2.84  3.27 -0.431  3.84 -0.996 -1.43  0.0883 -0.477 -0.0846  208.
#> 3 1      0.57  6.57  5.85  0.722  6.77 -0.201 -0.290 0.0883 -0.477 -0.0846  119.
#> # ℹ 129 more rows
#> # ℹ 6 more variables: central <dbl>, ka <dbl>, cl <dbl>, v <dbl>, tad <dbl>,
#> #   dosenum <dbl>
…
#> tka               0.46  0.195 42.3       1.58 (1.08, 2.32)     71.0    -0.606% 
#> tcl               1.01 0.0838 8.31       2.74 (2.33, 3.23)     27.0      4.04% 
#> tv         log V  3.45 0.0453 1.31       31.6 (28.9, 34.6)     13.4      9.53% 
#> add.sd           0.695                               0.695                     
#>  
#>   Covariance Type ($covMethod): linFim
#>   No correlations in between subject variability (BSV) matrix
#>   Full BSV covariance ($omega) or correlation ($omegaR; diagonals=SDs) 
#>   Distribution stats (mean/skewness/kurtosis/p-value) available in $shrink 
#>   Information about run found ($runInfo):
#>    • 'one.cmt' has the following user-defined boundaries: tcl which are ignored in 'saem' 
#>   Censoring ($censInformation): No censoring
#> 
#> ── Fit Data (object is a modified tibble): ──
#> # A tibble: 132 × 22
#>   ID     TIME    DV  PRED    RES IPRED   IRES  IWRES eta.ka eta.cl   eta.v depot
#>   <fct> <dbl> <dbl> <dbl>  <dbl> <dbl>  <dbl>  <dbl>  <dbl>  <dbl>   <dbl> <dbl>
#> 1 1      0     0.74  0     0.74   0     0.74   1.06  0.0883 -0.477 -0.0846  320.
#> 2 1      0.25  2.84  3.27 -0.431  3.84 -0.996 -1.43  0.0883 -0.477 -0.0846  208.
#> 3 1      0.57  6.57  5.85  0.722  6.77 -0.201 -0.290 0.0883 -0.477 -0.0846  119.
#> # ℹ 129 more rows
#> # ℹ 10 more variables: central <dbl>, ka <dbl>, cl <dbl>, v <dbl>, tad <dbl>,
#> #   dosenum <dbl>, WRES <dbl>, CPRED <dbl>, CRES <dbl>, CWRES <dbl>
…
