…
#> 
#>        Parameter  Est.     SE %RSE Back-transformed(95%CI) BSV(CV%) Shrink(SD)%
#> tka              0.444  0.194 43.6       1.56 (1.07, 2.28)    70.48    -0.467% 
#> tcl               1.12 0.0901 8.03       3.07 (2.57, 3.66)    29.54      8.37% 
#> tv         log V  3.45 0.0452 1.31       31.4 (28.7, 34.3)    13.18      12.2% 
#> add.sd           0.698                               0.698                     
#>  
#>   Covariance Type ($covMethod): linFim
#>   No correlations in between subject variability (BSV) matrix
#>   Full BSV covariance ($omega) or correlation ($omegaR; diagonals=SDs) 
#>   Distribution stats (mean/skewness/kurtosis/p-value) available in $shrink 
#>   Censoring ($censInformation): No censoring
#> 
#> ── Fit Data (object is a modified tibble): ──
#> # A tibble: 132 × 18
#>   ID     TIME    DV  PRED    RES IPRED   IRES  IWRES eta.ka eta.cl   eta.v depot
#>   <fct> <dbl> <dbl> <dbl>  <dbl> <dbl>  <dbl>  <dbl>  <dbl>  <dbl>   <dbl> <dbl>
#> 1 1      0     0.74  0     0.74   0     0.74   1.06   0.109 -0.580 -0.0762  320.
#> 2 1      0.25  2.84  3.23 -0.388  3.83 -0.994 -1.42   0.109 -0.580 -0.0762  207.
#> 3 1      0.57  6.57  5.72  0.846  6.72 -0.149 -0.214  0.109 -0.580 -0.0762  119.
#> # ℹ 129 more rows
#> # ℹ 6 more variables: central <dbl>, ka <dbl>, cl <dbl>, v <dbl>, tad <dbl>,
#> #   dosenum <dbl>
…
