…
#> elapsed 0.112024
#> 
#> ── ($parFixed or $parFixedDf): ──
#> 
#>        Est.     SE  %RSE   Back-transformed(95%CI) BSV(SD) Shrink(SD)%
#> E0  -0.7919 0.2718 34.33 -0.7919 (-1.325, -0.2591)                    
#> Em    4.822  1.611 33.42       4.822 (1.664, 7.98)                    
#> E50   2.282 0.9253 40.55     2.282 (0.4681, 4.095)                    
#> g         2  FIXED FIXED                         2                    
#>  
#>   Covariance Type ($covMethod): r
#>   Censoring ($censInformation): No censoring
#> 
#> ── Fit Data (object is a modified tibble): ──
#> # A tibble: 1,000 × 5
#>   ID      TIME    DV  IPRED      v
#>   <fct>  <dbl> <dbl>  <dbl>  <dbl>
#> 1 1     0.0564     0 -0.375 -0.789
#> 2 1     0.0595     1 -1.16  -0.789
#> 3 1     0.0650     0 -0.375 -0.788
#> # ℹ 997 more rows
…
