Control for bobyqa estimation method in nlmixr2 — bobyqaControl • nlmixr2est
…
#> elapsed 0.1017138
#> 
#> ── ($parFixed or $parFixedDf): ──
#> 
#>        Est.     SE  %RSE   Back-transformed(95%CI)
#> E0  -0.5761 0.2304 39.99 -0.5761 (-1.028, -0.1246)
#> Em    8.773  8.361 95.31     8.773 (-7.615, 25.16)
#> E50   4.054  2.863 70.62     4.054 (-1.558, 9.666)
#> g     2.000  FIXED FIXED                     2.000
#>  
#>   Covariance Type ($covMethod): r
#>   Censoring ($censInformation): No censoring
#> 
#> ── Fit Data (object is a modified tibble): ──
#> # A tibble: 1,000 × 5
#>   ID      TIME    DV  IPRED      v
#>   <fct>  <dbl> <dbl>  <dbl>  <dbl>
#> 1 1     0.0564     0 -0.447 -0.574
#> 2 1     0.0595     1 -1.02  -0.574
#> 3 1     0.0650     1 -1.02  -0.574
#> # ℹ 997 more rows
…
