…
#> ── ($parFixed or $parFixedDf): ──
#> 
#>        Est.     SE  %RSE   Back-transformed(95%CI)
#> E0  -0.7181 0.2229 31.03 -0.7181 (-1.155, -0.2813)
#> Em    10.73  14.11 131.5     10.73 (-16.93, 38.38)
#> E50   4.995  4.447 89.02     4.995 (-3.721, 13.71)
#> g     2.000  FIXED FIXED                     2.000
#>  
#>   Covariance Type ($covMethod): r
#>   Censoring ($censInformation): No censoring
#>   Minimization message ($message):  
#>     CONVERGENCE: REL_REDUCTION_OF_F_<=_FACTR*EPSMCH 
#> 
#> ── Fit Data (object is a modified tibble): ──
#> # A tibble: 1,000 × 5
#>   ID      TIME    DV  IPRED      v
#>   <fct>  <dbl> <dbl>  <dbl>  <dbl>
#> 1 1     0.0343     0 -0.397 -0.718
#> 2 1     0.0489     1 -1.11  -0.717
#> 3 1     0.0501     0 -0.398 -0.717
#> # ℹ 997 more rows
…
