Control for lbfgsb3c estimation method in nlmixr2 — lbfgsb3cControl • nlmixr2est
…
#> ── ($parFixed or $parFixedDf): ──
#> 
#>        Est.     SE  %RSE   Back-transformed(95%CI) BSV(SD) Shrink(SD)%
#> E0  -0.7026 0.2475 35.22 -0.7026 (-1.188, -0.2175)                    
#> Em    5.574  2.925 52.47    5.574 (-0.1583, 11.31)                    
#> E50   3.044  1.552 51.00   3.044 (0.001516, 6.086)                    
#> g     2.000  FIXED FIXED                     2.000                    
#>  
#>   Covariance Type ($covMethod): r
#>   Censoring ($censInformation): No censoring
#>   Minimization message ($message):  
#>     CONVERGENCE: REL_REDUCTION_OF_F_<=_FACTR*EPSMCH 
#> 
#> ── Fit Data (object is a modified tibble): ──
#> # A tibble: 1,000 × 5
#>   ID      TIME    DV  IPRED      v
#>   <fct>  <dbl> <dbl>  <dbl>  <dbl>
#> 1 1     0.0249     0 -0.402 -0.702
#> 2 1     0.0403     0 -0.403 -0.702
#> 3 1     0.0864     0 -0.404 -0.698
#> # ℹ 997 more rows
…
