…
#> elapsed 0.1057575
#> 
#> ── ($parFixed or $parFixedDf): ──
#> 
#>        Est.     SE  %RSE   Back-transformed(95%CI)
#> E0  -0.7540 0.2468 32.73 -0.7540 (-1.238, -0.2703)
#> Em    6.000  2.701 45.01     6.000 (0.7071, 11.29)
#> E50   2.931  1.257 42.87     2.931 (0.4682, 5.395)
#> g     2.000  FIXED FIXED                     2.000
#>  
#>   Covariance Type ($covMethod): r
#>   Censoring ($censInformation): No censoring
#> 
#> ── Fit Data (object is a modified tibble): ──
#> # A tibble: 1,000 × 5
#>   ID      TIME    DV  IPRED      v
#>   <fct>  <dbl> <dbl>  <dbl>  <dbl>
#> 1 1     0.0591     0 -0.386 -0.752
#> 2 1     0.0591     0 -0.386 -0.752
#> 3 1     0.0628     0 -0.386 -0.751
#> # ℹ 997 more rows
…
