…
#> ── ($parFixed or $parFixedDf): ──
#> 
#>        Est.    SE  %RSE Back-transformed(95%CI)
#> E0  -0.6131 4.608 751.6 -0.6131 (-9.645, 8.419)
#> Em    9.016 203.0  2251   9.016 (-388.8, 406.8)
#> E50   4.661 86.21  1849   4.661 (-164.3, 173.6)
#> g     2.000 FIXED FIXED                   2.000
#>  
#>   Covariance Type ($covMethod): r (nlm)
#>   Censoring ($censInformation): No censoring
#>   Minimization message ($message):  
#>     relative gradient is close to zero, current iterate is probably solution 
#> 
#> ── Fit Data (object is a modified tibble): ──
#> # A tibble: 1,000 × 5
#>   ID      TIME    DV  IPRED      v
#>   <fct>  <dbl> <dbl>  <dbl>  <dbl>
#> 1 1     0.0358     0 -0.433 -0.613
#> 2 1     0.0521     0 -0.433 -0.612
#> 3 1     0.0610     0 -0.433 -0.612
#> # ℹ 997 more rows
…
