nlmixr2 defaults controls for nlm — nlmControl • nlmixr2est
…
#> ── ($parFixed or $parFixedDf): ──
#> 
#>        Est.    SE  %RSE Back-transformed(95%CI) BSV(SD) Shrink(SD)%
#> E0  -0.5944 5.871 987.6  -0.5944 (-12.1, 10.91)                    
#> Em    6.666 150.7  2260     6.666 (-288.6, 302)                    
#> E50   3.369 69.49  2063   3.369 (-132.8, 139.6)                    
#> g         2 FIXED FIXED                       2                    
#>  
#>   Covariance Type ($covMethod): r (nlm)
#>   Censoring ($censInformation): No censoring
#>   Minimization message ($message):  
#>     relative gradient is close to zero, current iterate is probably solution 
#> 
#> ── Fit Data (object is a modified tibble): ──
#> # A tibble: 1,000 × 5
#>   ID      TIME    DV  IPRED      v
#>   <fct>  <dbl> <dbl>  <dbl>  <dbl>
#> 1 1     0.0489     0 -0.440 -0.593
#> 2 1     0.0679     0 -0.440 -0.592
#> 3 1     0.0702     0 -0.441 -0.592
#> # ℹ 997 more rows
…
