…
#> ── ($parFixed or $parFixedDf): ──
#> 
#>       Est.     SE  %RSE  Back-transformed(95%CI)
#> E0  -1.047 0.2689 25.67 -1.047 (-1.574, -0.5203)
#> Em   4.917  1.343 27.30     4.917 (2.286, 7.549)
#> E50  2.209 0.7169 32.46    2.209 (0.8038, 3.614)
#> g    2.000  FIXED FIXED                    2.000
#>  
#>   Covariance Type ($covMethod): r (nlminb)
#>   Censoring ($censInformation): No censoring
#>   Minimization message ($message):  
#>     relative convergence (4) 
#> 
#> ── Fit Data (object is a modified tibble): ──
#> # A tibble: 1,000 × 5
#>   ID      TIME    DV  IPRED     v
#>   <fct>  <dbl> <dbl>  <dbl> <dbl>
#> 1 1     0.0175     0 -0.301 -1.05
#> 2 1     0.0480     1 -1.35  -1.05
#> 3 1     0.0529     0 -0.301 -1.04
#> # ℹ 997 more rows
…
