Try to fix a nlmixr2 fit — nlmixr2fix • nlmixr2est
…
#> 
#>        Parameter  Est.     SE %RSE Back-transformed(95%CI) BSV(CV%) Shrink(SD)%
#> tka           Ka 0.465  0.195 41.8       1.59 (1.09, 2.33)     71.0    -0.403% 
#> tcl           Cl  1.01 0.0846  8.4       2.74 (2.32, 3.23)     27.3      4.51% 
#> tv             V  3.46 0.0455 1.32         31.7 (29, 34.6)     13.4      8.80% 
#> add.sd           0.695                               0.695                     
#>  
#>   Covariance Type ($covMethod): linFim
#>   No correlations in between subject variability (BSV) matrix
#>   Full BSV covariance ($omega) or correlation ($omegaR; diagonals=SDs) 
#>   Distribution stats (mean/skewness/kurtosis/p-value) available in $shrink 
#>   Censoring ($censInformation): No censoring
#> 
#> ── Fit Data (object is a modified tibble): ──
#> # A tibble: 132 × 19
#>   ID     TIME    DV  PRED    RES IPRED   IRES  IWRES eta.ka eta.cl   eta.v    cp
#>   <fct> <dbl> <dbl> <dbl>  <dbl> <dbl>  <dbl>  <dbl>  <dbl>  <dbl>   <dbl> <dbl>
#> 1 1      0     0.74  0     0.74   0     0.74   1.06  0.0869 -0.481 -0.0832  0   
#> 2 1      0.25  2.84  3.28 -0.437  3.83 -0.995 -1.43  0.0869 -0.481 -0.0832  3.83
#> 3 1      0.57  6.57  5.85  0.715  6.76 -0.194 -0.280 0.0869 -0.481 -0.0832  6.76
#> # ℹ 129 more rows
#> # ℹ 7 more variables: depot <dbl>, center <dbl>, ka <dbl>, cl <dbl>, v <dbl>,
#> #   tad <dbl>, dosenum <dbl>
…
#>  3 3     0.465  1.01  3.46  0.695 -0.815  -0.291  -0.147  
#>  4 4     0.465  1.01  3.46  0.695  1.39   -0.219   0.00392
#>  5 5     0.465  1.01  3.46  0.695 -0.566   0.397   0.00232
#>  6 6     0.465  1.01  3.46  0.695 -0.544  -0.172  -0.124  
#>  7 7     0.465  1.01  3.46  0.695  0.940   0.310  -0.0714 
#>  8 8     0.465  1.01  3.46  0.695  0.963  -0.0476 -0.184  
#>  9 9     0.465  1.01  3.46  0.695  0.0915  0.0251  0.0367 
#> 10 10    0.465  1.01  3.46  0.695  0.780  -0.0595 -0.0382 
#> 11 11    0.465  1.01  3.46  0.695  0.719  -0.223   0.129  
#> 12 12    0.465  1.01  3.46  0.695  0.294   0.309  -0.126  
#> ── Initial Conditions (value$inits): ──
#>  depot center 
#>      0      0 
#> ── First part of data (object): ──
#> # A tibble: 132 × 10
#>      id  time    ka    cl     v    cp ipredSim     sim    depot center
#>   <int> <dbl> <dbl> <dbl> <dbl> <dbl>    <dbl>   <dbl>    <dbl>  <dbl>
#> 1     1  0     2.30  2.90  36.6  0        0    -0.0631 320.         0 
#> 2     1  0.25  2.30  2.90  36.6  3.78     3.78  3.97   180.       139.
#> 3     1  0.57  2.30  2.90  36.6  6.22     6.22  6.24    86.1      228.
#> 4     1  1.12  2.30  2.90  36.6  7.60     7.60  7.16    24.3      278.
#> 5     1  2.02  2.30  2.90  36.6  7.63     7.63  7.42     3.06     279.
#> 6     1  3.82  2.30  2.90  36.6  6.69     6.69  6.57     0.0485   245.
#> # ℹ 126 more rows
…
