…
#> add.sd           0.699 2.12e-311 3.03e-309    0.699 (0.699, 0.699)         
#>        Shrink(SD)%
#> tka        -0.830 
#> tcl          3.23 
#> tv           12.2 
#> add.sd            
#>  
#>   Covariance Type ($covMethod): linFim
#>   No correlations in between subject variability (BSV) matrix
#>   Full BSV covariance ($omega) or correlation ($omegaR; diagonals=SDs) 
#>   Distribution stats (mean/skewness/kurtosis/p-value) available in $shrink 
#>   Censoring ($censInformation): No censoring
#> 
#> ── Fit Data (object is a modified tibble): ──
#> # A tibble: 132 × 18
#>   ID     TIME    DV  PRED    RES IPRED   IRES  IWRES eta.ka eta.cl   eta.v depot
#>   <fct> <dbl> <dbl> <dbl>  <dbl> <dbl>  <dbl>  <dbl>  <dbl>  <dbl>   <dbl> <dbl>
#> 1 1      0     0.74  0     0.74   0     0.74   1.06   0.118 -0.513 -0.0739  320.
#> 2 1      0.25  2.84  3.22 -0.378  3.84 -1.00  -1.44   0.118 -0.513 -0.0739  206.
#> 3 1      0.57  6.57  5.65  0.916  6.67 -0.101 -0.144  0.118 -0.513 -0.0739  117.
#> # ℹ 129 more rows
#> # ℹ 6 more variables: central <dbl>, ka <dbl>, cl <dbl>, v <dbl>, tad <dbl>,
#> #   dosenum <dbl>
…
