nlmixr2 nlminb defaults — nlminbControl • nlmixr2est
…
#> ── ($parFixed or $parFixedDf): ──
#> 
#>       Est.     SE  %RSE  Back-transformed(95%CI) BSV(SD) Shrink(SD)%
#> E0  -0.603 0.2195  36.4 -0.603 (-1.033, -0.1729)                    
#> Em   9.237  8.865 95.97    9.237 (-8.138, 26.61)                    
#> E50  4.323  2.963 68.54    4.323 (-1.484, 10.13)                    
#> g        2  FIXED FIXED                        2                    
#>  
#>   Covariance Type ($covMethod): r (nlminb)
#>   Censoring ($censInformation): No censoring
#>   Minimization message ($message):  
#>     relative convergence (4) 
#> 
#> ── Fit Data (object is a modified tibble): ──
#> # A tibble: 1,000 × 5
#>   ID      TIME    DV  IPRED      v
#>   <fct>  <dbl> <dbl>  <dbl>  <dbl>
#> 1 1     0.0165     0 -0.436 -0.603
#> 2 1     0.0372     0 -0.437 -0.602
#> 3 1     0.0882     0 -0.438 -0.599
#> # ℹ 997 more rows
…
