nlmixr2 optim defaults — optimControl • nlmixr2est
…
#> elapsed 0.1016726
#> 
#> ── (value$parFixed or value$parFixedDf): ──
#> 
#>        Est.     SE  %RSE   Back-transformed(95%CI) BSV(SD) Shrink(SD)%
#> E0  -0.6182 0.2345 37.93 -0.6182 (-1.078, -0.1586)                    
#> Em    5.914  3.031 51.24   5.914 (-0.02573, 11.85)                    
#> E50   3.145  1.501 47.74     3.145 (0.2021, 6.088)                    
#> g         2  FIXED FIXED                         2                    
#>  
#>   Covariance Type (value$covMethod): r (optim)
#>   Censoring (value$censInformation): No censoring
#> 
#> ── Fit Data (object value is a modified tibble): ──
#> # A tibble: 1,000 × 5
#>   ID      TIME    DV  IPRED      v
#>   <fct>  <dbl> <dbl>  <dbl>  <dbl>
#> 1 1     0.0429     0 -0.431 -0.617
#> 2 1     0.0693     1 -1.05  -0.615
#> 3 1     0.0743     0 -0.432 -0.615
#> # ℹ 997 more rows
…
