…
#> elapsed 0.1156987
#> 
#> ── (value$parFixed or value$parFixedDf): ──
#> 
#>        Est.     SE  %RSE   Back-transformed(95%CI)
#> E0  -0.2947 0.2131 72.33 -0.2947 (-0.7124, 0.1231)
#> Em    17.22  31.65 183.8     17.22 (-44.81, 79.26)
#> E50   7.688  8.845 115.1     7.688 (-9.649, 25.02)
#> g     2.000  FIXED FIXED                     2.000
#>  
#>   Covariance Type (value$covMethod): r (optim)
#>   Censoring (value$censInformation): No censoring
#> 
#> ── Fit Data (object value is a modified tibble): ──
#> # A tibble: 1,000 × 5
#>   ID      TIME    DV  IPRED      v
#>   <fct>  <dbl> <dbl>  <dbl>  <dbl>
#> 1 1     0.0429     0 -0.557 -0.294
#> 2 1     0.0693     1 -0.850 -0.293
#> 3 1     0.0743     0 -0.557 -0.293
#> # ℹ 997 more rows
…
