…
#> elapsed 0.1069476
#> 
#> ── ($parFixed or $parFixedDf): ──
#> 
#>        Est.    SE  %RSE  Back-transformed(95%CI) BSV(SD) Shrink(SD)%
#> E0  -0.8062 0.247 30.64 -0.8062 (-1.29, -0.3221)                    
#> Em    5.487 2.368 43.16    5.487 (0.8456, 10.13)                    
#> E50   2.898 1.244 42.94    2.898 (0.4592, 5.337)                    
#> g         2 FIXED FIXED                        2                    
#>  
#>   Covariance Type ($covMethod): r
#>   Censoring ($censInformation): No censoring
#> 
#> ── Fit Data (object is a modified tibble): ──
#> # A tibble: 1,000 × 5
#>   ID      TIME    DV  IPRED      v
#>   <fct>  <dbl> <dbl>  <dbl>  <dbl>
#> 1 1     0.0383     0 -0.369 -0.805
#> 2 1     0.0509     0 -0.370 -0.805
#> 3 1     0.0543     1 -1.17  -0.804
#> # ℹ 997 more rows
…
